<?xml version="1.0" standalone="no" ?>
<!DOCTYPE svg PUBLIC "-//W3C//DTD SVG 1.1//EN"
  "http://www.w3.org/Graphics/SVG/1.1/DTD/svg11.dtd"
  [ <!ENTITY message "XML entity"> ]>
<svg version="1.1"
     baseProfil="full"
     xmlns="http://www.w3.org/2000/svg"
     viewBox="0 0 210 297"
     height="297mm" width="210mm">
  <circle r="40" cy="148" cx="155" fill="white" stroke-width="1"
          stroke="red"/>
  <text x="10" y="155" font-size="10">&message;</text>
  <script type="text/javascript">alert('attack!')</script>
  <foreignObject class="node" y="148" x="155" width="100" height="100">
    <body xmlns="http://www.w3.org/1999/xhtml">
      <a href="http://localhost:3000">click here</a>
    </body>
  </foreignObject>
</svg>
